﻿Car_ID,Title,Region,Make,Model,Variant,Suburb,Province,Price,ExpectedPaymentPerMonth,CarType,RegistrationYear,Mileage,Transmission,FuelType,PriceRating,Dealer,LastUpdated,PreviousOwners,ManufacturersColour,BodyType,ServiceHistory,WarrantyRemaining,IntroductionDate,EndDate,ServiceIntervalDistance,EnginePosition,EngineDetail,EngineCapacity,CylinderLayoutAndQuantity,FuelTypeEngine,FuelCapacity,FuelConsumption,FuelRange,PowerMaximum,TorqueMaximum,Acceleration,MaximumSpeed,CO2Emissions,Version,DealerUrl,Timestamp
Car_ID,Title,Region,Make,Model,Variant,Suburb,Province,Price,ExpectedPaymentPerMonth,CarType,RegistrationYear,Mileage,Transmission,FuelType,PriceRating,Dealer,LastUpdated,PreviousOwners,ManufacturersColour,BodyType,ServiceHistory,WarrantyRemaining,IntroductionDate,EndDate,ServiceIntervalDistance,EnginePosition,EngineDetail,EngineCapacity,CylinderLayoutAndQuantity,FuelTypeEngine,FuelCapacity,FuelConsumption,FuelRange,PowerMaximum,TorqueMaximum,Acceleration,MaximumSpeed,CO2Emissions,Version,DealerUrl,Timestamp
Car_ID,Title,Region,Make,Model,Variant,Suburb,Province,Price,ExpectedPaymentPerMonth,CarType,RegistrationYear,Mileage,Transmission,FuelType,PriceRating,Dealer,LastUpdated,PreviousOwners,ManufacturersColour,BodyType,ServiceHistory,WarrantyRemaining,IntroductionDate,EndDate,ServiceIntervalDistance,EnginePosition,EngineDetail,EngineCapacity,CylinderLayoutAndQuantity,FuelTypeEngine,FuelCapacity,FuelConsumption,FuelRange,PowerMaximum,TorqueMaximum,Acceleration,MaximumSpeed,CO2Emissions,Version,DealerUrl,Timestamp
Car_ID,Title,Region,Make,Model,Variant,Suburb,Province,Price,ExpectedPaymentPerMonth,CarType,RegistrationYear,Mileage,Transmission,FuelType,PriceRating,Dealer,LastUpdated,PreviousOwners,ManufacturersColour,BodyType,ServiceHistory,WarrantyRemaining,IntroductionDate,EndDate,ServiceIntervalDistance,EnginePosition,EngineDetail,EngineCapacity,CylinderLayoutAndQuantity,FuelTypeEngine,FuelCapacity,FuelConsumption,FuelRange,PowerMaximum,TorqueMaximum,Acceleration,MaximumSpeed,CO2Emissions,Version,DealerUrl,Timestamp
Car_ID,Title,Region,Make,Model,Variant,Suburb,Province,Price,ExpectedPaymentPerMonth,CarType,RegistrationYear,Mileage,Transmission,FuelType,PriceRating,Dealer,LastUpdated,PreviousOwners,ManufacturersColour,BodyType,ServiceHistory,WarrantyRemaining,IntroductionDate,EndDate,ServiceIntervalDistance,EnginePosition,EngineDetail,EngineCapacity,CylinderLayoutAndQuantity,FuelTypeEngine,FuelCapacity,FuelConsumption,FuelRange,PowerMaximum,TorqueMaximum,Acceleration,MaximumSpeed,CO2Emissions,Version,DealerUrl,Timestamp
Car_ID,Title,Region,Make,Model,Variant,Suburb,Province,Price,ExpectedPaymentPerMonth,CarType,RegistrationYear,Mileage,Transmission,FuelType,PriceRating,Dealer,LastUpdated,PreviousOwners,ManufacturersColour,BodyType,ServiceHistory,WarrantyRemaining,IntroductionDate,EndDate,ServiceIntervalDistance,EnginePosition,EngineDetail,EngineCapacity,CylinderLayoutAndQuantity,FuelTypeEngine,FuelCapacity,FuelConsumption,FuelRange,PowerMaximum,TorqueMaximum,Acceleration,MaximumSpeed,CO2Emissions,Version,DealerUrl,Timestamp
Car_ID,Title,Region,Make,Model,Variant,Suburb,Province,Price,ExpectedPaymentPerMonth,CarType,RegistrationYear,Mileage,Transmission,FuelType,PriceRating,Dealer,LastUpdated,PreviousOwners,ManufacturersColour,BodyType,ServiceHistory,WarrantyRemaining,IntroductionDate,EndDate,ServiceIntervalDistance,EnginePosition,EngineDetail,EngineCapacity,CylinderLayoutAndQuantity,FuelTypeEngine,FuelCapacity,FuelConsumption,FuelRange,PowerMaximum,TorqueMaximum,Acceleration,MaximumSpeed,CO2Emissions,Version,DealerUrl,Timestamp
